module ronte

require (
	github.com/gin-contrib/sse v0.0.0-20170109093832-22d885f9ecc7 // indirect
	github.com/gin-gonic/gin v1.3.0
	github.com/golang/protobuf v1.2.0 // indirect
	github.com/jasonlvhit/gocron v0.0.0-20180312192515-54194c9749d4
	github.com/jinzhu/gorm v1.9.2
	github.com/jinzhu/inflection v0.0.0-20180308033659-04140366298a // indirect
	github.com/json-iterator/go v1.1.5 // indirect
	github.com/kr/pretty v0.1.0 // indirect
	github.com/lib/pq v1.0.0 // indirect
	github.com/mattn/go-isatty v0.0.4 // indirect
	github.com/modern-go/concurrent v0.0.0-20180306012644-bacd9c7ef1dd // indirect
	github.com/modern-go/reflect2 v1.0.1 // indirect
	github.com/shopspring/decimal v0.0.0-20180709203117-cd690d0c9e24 // indirect
	github.com/sirupsen/logrus v1.2.0
	github.com/ugorji/go/codec v0.0.0-20181204163529-d75b2dcb6bc8 // indirect
	golang.org/x/crypto v0.0.0-20181203042331-505ab145d0a9 // indirect
	golang.org/x/net v0.0.0-20181201002055-351d144fa1fc // indirect
	golang.org/x/sync v0.0.0-20181108010431-42b317875d0f // indirect
	golang.org/x/sys v0.0.0-20181206074257-70b957f3b65e // indirect
	gopkg.in/check.v1 v1.0.0-20180628173108-788fd7840127 // indirect
	gopkg.in/go-playground/assert.v1 v1.2.1 // indirect
	gopkg.in/go-playground/validator.v8 v8.18.2 // indirect
	gopkg.in/yaml.v2 v2.2.2 // indirect
)
